…
You'll learn about the different join functions below, but see what happens when join the two datasets with and without explicitly defining the key.

``` r
left_join(meets, competitors, by = "MeetID")
```

    ## # A tibble: 3,516 x 20
    ##    MeetID MeetPath      Federation Date     MeetCountry MeetState MeetTown
    ##     <int> <chr>         <chr>      <chr>    <chr>       <chr>     <chr>   
    ##  1   7015 usapl/NS-201~ USAPL      10/15/2~ USA         <NA>      <NA>    
    ##  2   7015 usapl/NS-201~ USAPL      10/15/2~ USA         <NA>      <NA>    
    ##  3   7015 usapl/NS-201~ USAPL      10/15/2~ USA         <NA>      <NA>    
    ##  4   7015 usapl/NS-201~ USAPL      10/15/2~ USA         <NA>      <NA>    
    ##  5   7015 usapl/NS-201~ USAPL      10/15/2~ USA         <NA>      <NA>    
    ##  6   7015 usapl/NS-201~ USAPL      10/15/2~ USA         <NA>      <NA>    
    ##  7   7015 usapl/NS-201~ USAPL      10/15/2~ USA         <NA>      <NA>    
    ##  8   7015 usapl/NS-201~ USAPL      10/15/2~ USA         <NA>      <NA>    
    ##  9   7015 usapl/NS-201~ USAPL      10/15/2~ USA         <NA>      <NA>    
    ## 10   7015 usapl/NS-201~ USAPL      10/15/2~ USA         <NA>      <NA>    
    ## # ... with 3,506 more rows, and 13 more variables: MeetName <chr>,
    ## #   Name <chr>, Sex <chr>, Division <chr>, BodyweightKg <dbl>,
    ## #   WeightClassKg <chr>, WeightClass <chr>, BestSquatKg <dbl>,
    ## #   BestBenchKg <dbl>, BestDeadliftKg <dbl>, TotalKg <dbl>, Place <chr>,
    ## #   Wilks <dbl>

``` r
left_join(meets, competitors)
```

    ## Joining, by = "MeetID"

    ## # A tibble: 3,516 x 20
    ##    MeetID MeetPath      Federation Date     MeetCountry MeetState MeetTown
    ##     <int> <chr>         <chr>      <chr>    <chr>       <chr>     <chr>   
    ##  1   7015 usapl/NS-201~ USAPL      10/15/2~ USA         <NA>      <NA>    
    ##  2   7015 usapl/NS-201~ USAPL      10/15/2~ USA         <NA>      <NA>    
    ##  3   7015 usapl/NS-201~ USAPL      10/15/2~ USA         <NA>      <NA>    
    ##  4   7015 usapl/NS-201~ USAPL      10/15/2~ USA         <NA>      <NA>    
    ##  5   7015 usapl/NS-201~ USAPL      10/15/2~ USA         <NA>      <NA>    
    ##  6   7015 usapl/NS-201~ USAPL      10/15/2~ USA         <NA>      <NA>    
    ##  7   7015 usapl/NS-201~ USAPL      10/15/2~ USA         <NA>      <NA>    
    ##  8   7015 usapl/NS-201~ USAPL      10/15/2~ USA         <NA>      <NA>    
    ##  9   7015 usapl/NS-201~ USAPL      10/15/2~ USA         <NA>      <NA>    
    ## 10   7015 usapl/NS-201~ USAPL      10/15/2~ USA         <NA>      <NA>    
    ## # ... with 3,506 more rows, and 13 more variables: MeetName <chr>,
    ## #   Name <chr>, Sex <chr>, Division <chr>, BodyweightKg <dbl>,
    ## #   WeightClassKg <chr>, WeightClass <chr>, BestSquatKg <dbl>,
    ## #   BestBenchKg <dbl>, BestDeadliftKg <dbl>, TotalKg <dbl>, Place <chr>,
    ## #   Wilks <dbl>
For the second join, dplyr was able to figure out that "MeetID" was the key variable!

Mismatched key names
--------------------

If keys are named differently across datasets, you can explicitly say they are the same by using the following code:

``` r
competitors2 <- competitors
competitors2$MeetNum <- competitors2$MeetID

left_join(meets, competitors2, by = c("MeetID" = "MeetNum"))
```

    ## # A tibble: 3,516 x 21
    ##    MeetID MeetPath      Federation Date     MeetCountry MeetState MeetTown
    ##     <int> <chr>         <chr>      <chr>    <chr>       <chr>     <chr>   
    ##  1   7015 usapl/NS-201~ USAPL      10/15/2~ USA         <NA>      <NA>    
    ##  2   7015 usapl/NS-201~ USAPL      10/15/2~ USA         <NA>      <NA>    
    ##  3   7015 usapl/NS-201~ USAPL      10/15/2~ USA         <NA>      <NA>    
    ##  4   7015 usapl/NS-201~ USAPL      10/15/2~ USA         <NA>      <NA>    
    ##  5   7015 usapl/NS-201~ USAPL      10/15/2~ USA         <NA>      <NA>    
    ##  6   7015 usapl/NS-201~ USAPL      10/15/2~ USA         <NA>      <NA>    
    ##  7   7015 usapl/NS-201~ USAPL      10/15/2~ USA         <NA>      <NA>    
    ##  8   7015 usapl/NS-201~ USAPL      10/15/2~ USA         <NA>      <NA>    
    ##  9   7015 usapl/NS-201~ USAPL      10/15/2~ USA         <NA>      <NA>    
    ## 10   7015 usapl/NS-201~ USAPL      10/15/2~ USA         <NA>      <NA>    
    ## # ... with 3,506 more rows, and 14 more variables: MeetName <chr>,
    ## #   MeetID.y <int>, Name <chr>, Sex <chr>, Division <chr>,
    ## #   BodyweightKg <dbl>, WeightClassKg <chr>, WeightClass <chr>,
    ## #   BestSquatKg <dbl>, BestBenchKg <dbl>, BestDeadliftKg <dbl>,
    ## #   TotalKg <dbl>, Place <chr>, Wilks <dbl>
…
Conflicting column names
------------------------

If you have two columns named the same thing across datasets that do *not* provide the same information, you need to explicitly define the key variables to ensure those duplicate columns are not included as a key. dplyr will then perform the join correctly and add a suffix to the same-name column names in your resulting dataset (e.g., "colname.x", "colname.y"). Also, if you want a custom suffix, you can explicitly call it with the suffix argument:

``` r
meets2 <- meets
meets2$Name <- meets2$MeetName

left_join(meets2, competitors, by = "MeetID") %>%
  select(Name.x, Name.y) #Just showing these columns for illustrative purposes
```

    ## # A tibble: 3,516 x 2
    ##    Name.x             Name.y          
    ##    <chr>              <chr>           
    ##  1 2015 Raw Nationals Nathalie Sanchez
    ##  2 2015 Raw Nationals Sarah Cruz-Ortiz
    ##  3 2015 Raw Nationals Jennifer Lotz   
    ##  4 2015 Raw Nationals Lisa Rothman    
    ##  5 2015 Raw Nationals Heather Connor  
    ##  6 2015 Raw Nationals Lisa Randazzo   
    ##  7 2015 Raw Nationals Emma Ife        
    ##  8 2015 Raw Nationals Pamela Sampson  
    ##  9 2015 Raw Nationals Kelley Sherwin  
    ## 10 2015 Raw Nationals Leah DeCesare   
    ## # ... with 3,506 more rows

We can see that it did *not* think Name was a key variable so it added the suffix ".x" and ".y" to each Name variable to differentiate them. If you want a custom suffix, you can explicitly call it with the suffix argument:

``` r
left_join(meets2, competitors, by = "MeetID", suffix = c("Meet", "Competitor"))  %>%
  select(NameMeet, NameCompetitor)
```

    ## # A tibble: 3,516 x 2
    ##    NameMeet           NameCompetitor  
    ##    <chr>              <chr>           
    ##  1 2015 Raw Nationals Nathalie Sanchez
    ##  2 2015 Raw Nationals Sarah Cruz-Ortiz
    ##  3 2015 Raw Nationals Jennifer Lotz   
    ##  4 2015 Raw Nationals Lisa Rothman    
    ##  5 2015 Raw Nationals Heather Connor  
    ##  6 2015 Raw Nationals Lisa Randazzo   
    ##  7 2015 Raw Nationals Emma Ife        
    ##  8 2015 Raw Nationals Pamela Sampson  
    ##  9 2015 Raw Nationals Kelley Sherwin  
    ## 10 2015 Raw Nationals Leah DeCesare   
    ## # ... with 3,506 more rows

Alternatively, you can always just rename them afterwards:

``` r
meets2 %>%
  left_join(competitors, by = "MeetID") %>%
  rename(NameMeet = Name.x, Name = Name.y) %>%
  select(NameMeet, Name)
```

    ## # A tibble: 3,516 x 2
    ##    NameMeet           Name            
    ##    <chr>              <chr>           
    ##  1 2015 Raw Nationals Nathalie Sanchez
    ##  2 2015 Raw Nationals Sarah Cruz-Ortiz
    ##  3 2015 Raw Nationals Jennifer Lotz   
    ##  4 2015 Raw Nationals Lisa Rothman    
    ##  5 2015 Raw Nationals Heather Connor  
    ##  6 2015 Raw Nationals Lisa Randazzo   
    ##  7 2015 Raw Nationals Emma Ife        
    ##  8 2015 Raw Nationals Pamela Sampson  
    ##  9 2015 Raw Nationals Kelley Sherwin  
    ## 10 2015 Raw Nationals Leah DeCesare   
    ## # ... with 3,506 more rows
…
Mutating joins are considered mutating joins because they add column(s).

### left\_join and right\_join

`left_join` returns all rows from the first dataset and all the columns from both datasets. `right_join` returns all rows from the second dataset and all the columns from both datasets.

In the following example, we test the meets\_full dataset (which has information for all Open Powerlifting meets) with the competitors dataset (which only has information for competitors from the 2015-2017 USAPL Raw National Championships).

``` r
left_join(meets_full, competitors, by = "MeetID")
```

    ## # A tibble: 11,995 x 20
    ##    MeetID MeetPath   Federation Date       MeetCountry MeetState MeetTown 
    ##     <int> <chr>      <chr>      <date>     <chr>       <chr>     <chr>    
    ##  1      0 365strong~ 365Strong  2016-10-29 USA         NC        Charlotte
    ##  2      1 365strong~ 365Strong  2016-11-19 USA         MO        Ozark    
    ##  3      2 365strong~ 365Strong  2016-07-09 USA         NC        Charlotte
    ##  4      3 365strong~ 365Strong  2016-06-11 USA         SC        Rock Hill
    ##  5      4 365strong~ 365Strong  2016-04-10 USA         SC        Rock Hill
    ##  6      5 365strong~ 365Strong  2017-04-22 USA         NC        Charlotte
    ##  7      6 365strong~ 365Strong  2017-01-21 USA         GA        Martinez 
    ##  8      7 365strong~ 365Strong  2017-06-10 USA         MO        Lake Oza~
    ##  9      8 365strong~ 365Strong  2017-07-15 USA         SC        Rock Hill
    ## 10      9 365strong~ 365Strong  2017-08-12 USA         NC        Fayettev~
    ## # ... with 11,985 more rows, and 13 more variables: MeetName <chr>,
    ## #   Name <chr>, Sex <chr>, Division <chr>, BodyweightKg <dbl>,
    ## #   WeightClassKg <chr>, WeightClass <chr>, BestSquatKg <dbl>,
    ## #   BestBenchKg <dbl>, BestDeadliftKg <dbl>, TotalKg <dbl>, Place <chr>,
    ## #   Wilks <dbl>

``` r
right_join(meets_full, competitors, by = "MeetID")
```

    ## # A tibble: 3,516 x 20
    ##    MeetID MeetPath    Federation Date       MeetCountry MeetState MeetTown
    ##     <int> <chr>       <chr>      <date>     <chr>       <chr>     <chr>   
    ##  1   7015 usapl/NS-2~ USAPL      2015-10-15 USA         <NA>      <NA>    
    ##  2   7015 usapl/NS-2~ USAPL      2015-10-15 USA         <NA>      <NA>    
    ##  3   7015 usapl/NS-2~ USAPL      2015-10-15 USA         <NA>      <NA>    
    ##  4   7015 usapl/NS-2~ USAPL      2015-10-15 USA         <NA>      <NA>    
    ##  5   7015 usapl/NS-2~ USAPL      2015-10-15 USA         <NA>      <NA>    
    ##  6   7015 usapl/NS-2~ USAPL      2015-10-15 USA         <NA>      <NA>    
    ##  7   7015 usapl/NS-2~ USAPL      2015-10-15 USA         <NA>      <NA>    
    ##  8   7015 usapl/NS-2~ USAPL      2015-10-15 USA         <NA>      <NA>    
    ##  9   7015 usapl/NS-2~ USAPL      2015-10-15 USA         <NA>      <NA>    
    ## 10   7015 usapl/NS-2~ USAPL      2015-10-15 USA         <NA>      <NA>    
    ## # ... with 3,506 more rows, and 13 more variables: MeetName <chr>,
    ## #   Name <chr>, Sex <chr>, Division <chr>, BodyweightKg <dbl>,
    ## #   WeightClassKg <chr>, WeightClass <chr>, BestSquatKg <dbl>,
    ## #   BestBenchKg <dbl>, BestDeadliftKg <dbl>, TotalKg <dbl>, Place <chr>,
    ## #   Wilks <dbl>
…
    ## TRUE

Note that we could also use the `identical` function instead of `setequal`, but `setequal` has the added benefit of not requiring row order to be identical.

### inner\_join

`inner_join` is an *exclusive join* and only joins data that match both datasets.

``` r
inner_join(meets_full, competitors, by = "MeetID")
```

    ## # A tibble: 3,516 x 20
    ##    MeetID MeetPath    Federation Date       MeetCountry MeetState MeetTown
    ##     <int> <chr>       <chr>      <date>     <chr>       <chr>     <chr>   
    ##  1   7015 usapl/NS-2~ USAPL      2015-10-15 USA         <NA>      <NA>    
    ##  2   7015 usapl/NS-2~ USAPL      2015-10-15 USA         <NA>      <NA>    
    ##  3   7015 usapl/NS-2~ USAPL      2015-10-15 USA         <NA>      <NA>    
    ##  4   7015 usapl/NS-2~ USAPL      2015-10-15 USA         <NA>      <NA>    
    ##  5   7015 usapl/NS-2~ USAPL      2015-10-15 USA         <NA>      <NA>    
    ##  6   7015 usapl/NS-2~ USAPL      2015-10-15 USA         <NA>      <NA>    
    ##  7   7015 usapl/NS-2~ USAPL      2015-10-15 USA         <NA>      <NA>    
    ##  8   7015 usapl/NS-2~ USAPL      2015-10-15 USA         <NA>      <NA>    
    ##  9   7015 usapl/NS-2~ USAPL      2015-10-15 USA         <NA>      <NA>    
    ## 10   7015 usapl/NS-2~ USAPL      2015-10-15 USA         <NA>      <NA>    
    ## # ... with 3,506 more rows, and 13 more variables: MeetName <chr>,
    ## #   Name <chr>, Sex <chr>, Division <chr>, BodyweightKg <dbl>,
    ## #   WeightClassKg <chr>, WeightClass <chr>, BestSquatKg <dbl>,
    ## #   BestBenchKg <dbl>, BestDeadliftKg <dbl>, TotalKg <dbl>, Place <chr>,
    ## #   Wilks <dbl>

``` r
inner_join(competitors, meets_full, by = "MeetID")
```

    ## # A tibble: 3,516 x 20
    ##    MeetID Name       Sex   Division BodyweightKg WeightClassKg WeightClass
    ##     <int> <chr>      <chr> <chr>           <dbl> <chr>         <chr>      
    ##  1   7015 Nathalie ~ Fema~ R-JR             47   47            1: 47kg    
    ##  2   7015 Sarah Cru~ Fema~ R-JR             46.1 47            1: 47kg    
    ##  3   7015 Jennifer ~ Fema~ R-JR             46.1 47            1: 47kg    
    ##  4   7015 Lisa Roth~ Fema~ R-O              46.5 47            1: 47kg    
    ##  5   7015 Heather C~ Fema~ R-O              44.5 47            1: 47kg    
    ##  6   7015 Lisa Rand~ Fema~ R-O              46.1 47            1: 47kg    
    ##  7   7015 Emma Ife   Fema~ R-O              45.8 47            1: 47kg    
    ##  8   7015 Pamela Sa~ Fema~ R-O              46.4 47            1: 47kg    
    ##  9   7015 Kelley Sh~ Fema~ R-O              45.7 47            1: 47kg    
    ## 10   7015 Leah DeCe~ Fema~ R-O              45.5 47            1: 47kg    
    ## # ... with 3,506 more rows, and 13 more variables: BestSquatKg <dbl>,
    ## #   BestBenchKg <dbl>, BestDeadliftKg <dbl>, TotalKg <dbl>, Place <chr>,
    ## #   Wilks <dbl>, MeetPath <chr>, Federation <chr>, Date <date>,
    ## #   MeetCountry <chr>, MeetState <chr>, MeetTown <chr>, MeetName <chr>

The `inner_join` function returns the same data regardless of the order of the dataframes, but the order of the columns change depending on which dataframe is the primary dataframe.

### full\_join

`full_join` is an *inclusive join* and combines all rows regardless if there's matching data in the other dataset.

``` r
full_join(meets_full, competitors, by = "MeetID")
```

    ## # A tibble: 11,995 x 20
    ##    MeetID MeetPath   Federation Date       MeetCountry MeetState MeetTown 
    ##     <int> <chr>      <chr>      <date>     <chr>       <chr>     <chr>    
    ##  1      0 365strong~ 365Strong  2016-10-29 USA         NC        Charlotte
    ##  2      1 365strong~ 365Strong  2016-11-19 USA         MO        Ozark    
    ##  3      2 365strong~ 365Strong  2016-07-09 USA         NC        Charlotte
    ##  4      3 365strong~ 365Strong  2016-06-11 USA         SC        Rock Hill
    ##  5      4 365strong~ 365Strong  2016-04-10 USA         SC        Rock Hill
    ##  6      5 365strong~ 365Strong  2017-04-22 USA         NC        Charlotte
    ##  7      6 365strong~ 365Strong  2017-01-21 USA         GA        Martinez 
    ##  8      7 365strong~ 365Strong  2017-06-10 USA         MO        Lake Oza~
    ##  9      8 365strong~ 365Strong  2017-07-15 USA         SC        Rock Hill
    ## 10      9 365strong~ 365Strong  2017-08-12 USA         NC        Fayettev~
    ## # ... with 11,985 more rows, and 13 more variables: MeetName <chr>,
    ## #   Name <chr>, Sex <chr>, Division <chr>, BodyweightKg <dbl>,
    ## #   WeightClassKg <chr>, WeightClass <chr>, BestSquatKg <dbl>,
    ## #   BestBenchKg <dbl>, BestDeadliftKg <dbl>, TotalKg <dbl>, Place <chr>,
    ## #   Wilks <dbl>

``` r
full_join(competitors, meets_full, by = "MeetID")
```

    ## # A tibble: 11,995 x 20
    ##    MeetID Name       Sex   Division BodyweightKg WeightClassKg WeightClass
    ##     <int> <chr>      <chr> <chr>           <dbl> <chr>         <chr>      
    ##  1   7015 Nathalie ~ Fema~ R-JR             47   47            1: 47kg    
    ##  2   7015 Sarah Cru~ Fema~ R-JR             46.1 47            1: 47kg    
    ##  3   7015 Jennifer ~ Fema~ R-JR             46.1 47            1: 47kg    
    ##  4   7015 Lisa Roth~ Fema~ R-O              46.5 47            1: 47kg    
    ##  5   7015 Heather C~ Fema~ R-O              44.5 47            1: 47kg    
    ##  6   7015 Lisa Rand~ Fema~ R-O              46.1 47            1: 47kg    
    ##  7   7015 Emma Ife   Fema~ R-O              45.8 47            1: 47kg    
    ##  8   7015 Pamela Sa~ Fema~ R-O              46.4 47            1: 47kg    
    ##  9   7015 Kelley Sh~ Fema~ R-O              45.7 47            1: 47kg    
    ## 10   7015 Leah DeCe~ Fema~ R-O              45.5 47            1: 47kg    
    ## # ... with 11,985 more rows, and 13 more variables: BestSquatKg <dbl>,
    ## #   BestBenchKg <dbl>, BestDeadliftKg <dbl>, TotalKg <dbl>, Place <chr>,
    ## #   Wilks <dbl>, MeetPath <chr>, Federation <chr>, Date <date>,
    ## #   MeetCountry <chr>, MeetState <chr>, MeetTown <chr>, MeetName <chr>
…
    ## # A tibble: 3 x 8
    ##   MeetID MeetPath     Federation Date       MeetCountry MeetState MeetTown
    ##    <int> <chr>        <chr>      <date>     <chr>       <chr>     <chr>   
    ## 1   7015 usapl/NS-20~ USAPL      2015-10-15 USA         <NA>      <NA>    
    ## 2   7021 usapl/NS-20~ USAPL      2016-10-13 USA         GA        Atlanta 
    ## 3   7028 usapl/NS-20~ USAPL      2017-10-10 USA         FL        Orlando 
    ## # ... with 1 more variable: MeetName <chr>

``` r
semi_join(competitors, meets_full, by = "MeetID")
```

    ## # A tibble: 3,516 x 13
    ##    MeetID Name       Sex   Division BodyweightKg WeightClassKg WeightClass
    ##     <int> <chr>      <chr> <chr>           <dbl> <chr>         <chr>      
    ##  1   7015 Nathalie ~ Fema~ R-JR             47   47            1: 47kg    
    ##  2   7015 Sarah Cru~ Fema~ R-JR             46.1 47            1: 47kg    
    ##  3   7015 Jennifer ~ Fema~ R-JR             46.1 47            1: 47kg    
    ##  4   7015 Lisa Roth~ Fema~ R-O              46.5 47            1: 47kg    
    ##  5   7015 Heather C~ Fema~ R-O              44.5 47            1: 47kg    
    ##  6   7015 Lisa Rand~ Fema~ R-O              46.1 47            1: 47kg    
    ##  7   7015 Emma Ife   Fema~ R-O              45.8 47            1: 47kg    
    ##  8   7015 Pamela Sa~ Fema~ R-O              46.4 47            1: 47kg    
    ##  9   7015 Kelley Sh~ Fema~ R-O              45.7 47            1: 47kg    
    ## 10   7015 Leah DeCe~ Fema~ R-O              45.5 47            1: 47kg    
    ## # ... with 3,506 more rows, and 6 more variables: BestSquatKg <dbl>,
    ## #   BestBenchKg <dbl>, BestDeadliftKg <dbl>, TotalKg <dbl>, Place <chr>,
    ## #   Wilks <dbl>
…
